\relax 
\providecommand\hyper@newdestlabel[2]{}
\bibstyle{alpha}
\bibdata{lit}
\bibcite{Arnold2006}{{Arn06}{}{{}}{{}}}
\bibcite{Chen}{{CS}{}{{}}{{}}}
\bibcite{DavidsonShivers2017}{{DSRL17}{}{{}}{{}}}
\bibcite{MAYER200285}{{May02}{}{{}}{{}}}
\bibcite{RalfHartmutGueting2018}{{RHG18}{}{{}}{{}}}
\bibcite{Ullenboom2021}{{Ull21}{}{{}}{{}}}
\bibcite{Vgh2016JAVASCRIPTLF}{{V{\'e}g16}{}{{}}{{}}}
\@writefile{toc}{\contentsline {section}{Literatur}{29}{section*.4}\protected@file@percent }
\@setckpt{literatur/literatur}{
\setcounter{page}{30}
\setcounter{equation}{0}
\setcounter{enumi}{0}
\setcounter{enumii}{0}
\setcounter{enumiii}{0}
\setcounter{enumiv}{0}
\setcounter{footnote}{0}
\setcounter{mpfootnote}{0}
\setcounter{part}{0}
\setcounter{section}{5}
\setcounter{subsection}{0}
\setcounter{subsubsection}{0}
\setcounter{paragraph}{0}
\setcounter{subparagraph}{0}
\setcounter{figure}{15}
\setcounter{table}{1}
\setcounter{NAT@ctr}{7}
\setcounter{float@type}{8}
\setcounter{caption@flags}{0}
\setcounter{continuedfloat}{0}
\setcounter{subfigure}{0}
\setcounter{subtable}{0}
\setcounter{lstnumber}{4}
\setcounter{Item}{0}
\setcounter{Hfootnote}{0}
\setcounter{bookmark@seq@number}{37}
\setcounter{lstlisting}{11}
\setcounter{section@level}{1}
}
