<?xml version="1.0" encoding="UTF-8" standalone="no"?>
<!-- Created with Inkscape (http://www.inkscape.org/) -->

<svg
   width="297mm"
   height="210mm"
   viewBox="0 0 297 210"
   version="1.1"
   id="svg5"
   inkscape:version="1.1.1 (3bf5ae0d25, 2021-09-20)"
   sodipodi:docname="Array.svg"
   xmlns:inkscape="http://www.inkscape.org/namespaces/inkscape"
   xmlns:sodipodi="http://sodipodi.sourceforge.net/DTD/sodipodi-0.dtd"
   xmlns:xlink="http://www.w3.org/1999/xlink"
   xmlns="http://www.w3.org/2000/svg"
   xmlns:svg="http://www.w3.org/2000/svg">
  <sodipodi:namedview
     id="namedview7"
     pagecolor="#ffffff"
     bordercolor="#666666"
     borderopacity="1.0"
     inkscape:pageshadow="2"
     inkscape:pageopacity="0.0"
     inkscape:pagecheckerboard="0"
     inkscape:document-units="mm"
     showgrid="false"
     inkscape:zoom="1"
     inkscape:cx="397.5"
     inkscape:cy="401.5"
     inkscape:window-width="1920"
     inkscape:window-height="1137"
     inkscape:window-x="-8"
     inkscape:window-y="-8"
     inkscape:window-maximized="1"
     inkscape:current-layer="layer2" />
  <defs
     id="defs2">
    <rect
       x="81"
       y="14"
       width="220"
       height="59"
       id="rect16935" />
    <marker
       style="overflow:visible"
       id="Arrow1Lstart"
       refX="0.0"
       refY="0.0"
       orient="auto"
       inkscape:stockid="Arrow1Lstart"
       inkscape:isstock="true">
      <path
         transform="scale(0.8) translate(12.5,0)"
         style="fill-rule:evenodd;fill:context-stroke;stroke:context-stroke;stroke-width:1.0pt"
         d="M 0.0,0.0 L 5.0,-5.0 L -12.5,0.0 L 5.0,5.0 L 0.0,0.0 z "
         id="path19207" />
    </marker>
    <marker
       style="overflow:visible;"
       id="Arrow1Lend"
       refX="0.0"
       refY="0.0"
       orient="auto"
       inkscape:stockid="Arrow1Lend"
       inkscape:isstock="true">
      <path
         transform="scale(0.8) rotate(180) translate(12.5,0)"
         style="fill-rule:evenodd;fill:context-stroke;stroke:context-stroke;stroke-width:1.0pt;"
         d="M 0.0,0.0 L 5.0,-5.0 L -12.5,0.0 L 5.0,5.0 L 0.0,0.0 z "
         id="path19210" />
    </marker>
    <linearGradient
       id="linearGradient4816"
       inkscape:swatch="solid">
      <stop
         style="stop-color:#000000;stop-opacity:1;"
         offset="0"
         id="stop4814" />
    </linearGradient>
    <marker
       style="overflow:visible"
       id="Arrow1Lstart-8"
       refX="0"
       refY="0"
       orient="auto"
       inkscape:stockid="Arrow1Lstart"
       inkscape:isstock="true">
      <path
         transform="matrix(0.8,0,0,0.8,10,0)"
         style="fill:context-stroke;fill-rule:evenodd;stroke:context-stroke;stroke-width:1pt"
         d="M 0,0 5,-5 -12.5,0 5,5 Z"
         id="path19207-6" />
    </marker>
    <marker
       style="overflow:visible"
       id="Arrow1Lend-3"
       refX="0"
       refY="0"
       orient="auto"
       inkscape:stockid="Arrow1Lend"
       inkscape:isstock="true">
      <path
         transform="matrix(-0.8,0,0,-0.8,-10,0)"
         style="fill:context-stroke;fill-rule:evenodd;stroke:context-stroke;stroke-width:1pt"
         d="M 0,0 5,-5 -12.5,0 5,5 Z"
         id="path19210-2" />
    </marker>
    <linearGradient
       inkscape:collect="always"
       xlink:href="#linearGradient4816"
       id="linearGradient4818-0"
       x1="14.096366"
       y1="95.427834"
       x2="32.852089"
       y2="95.427834"
       gradientUnits="userSpaceOnUse"
       gradientTransform="translate(86.847625,-56.322463)" />
    <linearGradient
       inkscape:collect="always"
       xlink:href="#linearGradient4816"
       id="linearGradient10651-1"
       gradientUnits="userSpaceOnUse"
       gradientTransform="translate(104.53835,-56.322464)"
       x1="14.096366"
       y1="95.427834"
       x2="32.852089"
       y2="95.427834" />
    <linearGradient
       inkscape:collect="always"
       xlink:href="#linearGradient4816"
       id="linearGradient10684-3"
       gradientUnits="userSpaceOnUse"
       gradientTransform="translate(122.22906,-56.322461)"
       x1="14.096366"
       y1="95.427834"
       x2="32.852089"
       y2="95.427834" />
    <linearGradient
       inkscape:collect="always"
       xlink:href="#linearGradient4816"
       id="linearGradient10717-5"
       gradientUnits="userSpaceOnUse"
       gradientTransform="translate(139.91978,-56.322469)"
       x1="14.096366"
       y1="95.427834"
       x2="32.852089"
       y2="95.427834" />
    <linearGradient
       inkscape:collect="always"
       xlink:href="#linearGradient4816"
       id="linearGradient10750-4"
       gradientUnits="userSpaceOnUse"
       gradientTransform="translate(157.6105,-56.322471)"
       x1="14.096366"
       y1="95.427834"
       x2="32.852089"
       y2="95.427834" />
    <linearGradient
       inkscape:collect="always"
       xlink:href="#linearGradient4816"
       id="linearGradient10783-2"
       gradientUnits="userSpaceOnUse"
       gradientTransform="translate(175.30123,-56.322461)"
       x1="14.096366"
       y1="95.427834"
       x2="32.852089"
       y2="95.427834" />
    <linearGradient
       inkscape:collect="always"
       xlink:href="#linearGradient4816"
       id="linearGradient10816-7"
       gradientUnits="userSpaceOnUse"
       gradientTransform="translate(192.99195,-56.322453)"
       x1="14.096366"
       y1="95.427834"
       x2="32.852089"
       y2="95.427834" />
    <linearGradient
       inkscape:collect="always"
       xlink:href="#linearGradient4816"
       id="linearGradient10849-1"
       gradientUnits="userSpaceOnUse"
       gradientTransform="translate(210.68267,-56.322465)"
       x1="14.096366"
       y1="95.427834"
       x2="32.852089"
       y2="95.427834" />
    <linearGradient
       inkscape:collect="always"
       xlink:href="#linearGradient4816"
       id="linearGradient10882-2"
       gradientUnits="userSpaceOnUse"
       gradientTransform="translate(228.37339,-56.322457)"
       x1="14.096366"
       y1="95.427834"
       x2="32.852089"
       y2="95.427834" />
    <linearGradient
       inkscape:collect="always"
       xlink:href="#linearGradient4816"
       id="linearGradient10915-7"
       gradientUnits="userSpaceOnUse"
       gradientTransform="translate(246.0641,-56.322465)"
       x1="14.096366"
       y1="95.427834"
       x2="32.852089"
       y2="95.427834" />
    <marker
       style="overflow:visible"
       id="Arrow1Lstart-3"
       refX="0"
       refY="0"
       orient="auto"
       inkscape:stockid="Arrow1Lstart"
       inkscape:isstock="true">
      <path
         transform="matrix(0.8,0,0,0.8,10,0)"
         style="fill:context-stroke;fill-rule:evenodd;stroke:context-stroke;stroke-width:1pt"
         d="M 0,0 5,-5 -12.5,0 5,5 Z"
         id="path19207-7" />
    </marker>
    <marker
       style="overflow:visible"
       id="Arrow1Lend-0"
       refX="0"
       refY="0"
       orient="auto"
       inkscape:stockid="Arrow1Lend"
       inkscape:isstock="true">
      <path
         transform="matrix(-0.8,0,0,-0.8,-10,0)"
         style="fill:context-stroke;fill-rule:evenodd;stroke:context-stroke;stroke-width:1pt"
         d="M 0,0 5,-5 -12.5,0 5,5 Z"
         id="path19210-0" />
    </marker>
    <linearGradient
       inkscape:collect="always"
       xlink:href="#linearGradient4816"
       id="linearGradient840"
       gradientUnits="userSpaceOnUse"
       gradientTransform="translate(33.775461,-56.322465)"
       x1="14.096366"
       y1="95.427834"
       x2="32.852089"
       y2="95.427834" />
    <linearGradient
       inkscape:collect="always"
       xlink:href="#linearGradient4816"
       id="linearGradient4691"
       gradientUnits="userSpaceOnUse"
       gradientTransform="translate(33.260714,5.8589374)"
       x1="14.096366"
       y1="95.427834"
       x2="32.852089"
       y2="95.427834" />
    <linearGradient
       inkscape:collect="always"
       xlink:href="#linearGradient4816"
       id="linearGradient4724"
       gradientUnits="userSpaceOnUse"
       gradientTransform="translate(32.18796,72.794207)"
       x1="14.096366"
       y1="95.427834"
       x2="32.852089"
       y2="95.427834" />
    <marker
       style="overflow:visible"
       id="Arrow1Lend-5"
       refX="0"
       refY="0"
       orient="auto"
       inkscape:stockid="Arrow1Lend"
       inkscape:isstock="true">
      <path
         transform="matrix(-0.8,0,0,-0.8,-10,0)"
         style="fill:context-stroke;fill-rule:evenodd;stroke:context-stroke;stroke-width:1pt"
         d="M 0,0 5,-5 -12.5,0 5,5 Z"
         id="path19210-3" />
    </marker>
    <marker
       style="overflow:visible"
       id="Arrow1Lend-6"
       refX="0"
       refY="0"
       orient="auto"
       inkscape:stockid="Arrow1Lend"
       inkscape:isstock="true">
      <path
         transform="matrix(-0.8,0,0,-0.8,-10,0)"
         style="fill:context-stroke;fill-rule:evenodd;stroke:context-stroke;stroke-width:1pt"
         d="M 0,0 5,-5 -12.5,0 5,5 Z"
         id="path19210-8" />
    </marker>
    <linearGradient
       inkscape:collect="always"
       xlink:href="#linearGradient4816"
       id="linearGradient14292"
       gradientUnits="userSpaceOnUse"
       gradientTransform="translate(86.847625,7.1775374)"
       x1="14.096366"
       y1="95.427834"
       x2="32.852089"
       y2="95.427834" />
    <linearGradient
       inkscape:collect="always"
       xlink:href="#linearGradient4816"
       id="linearGradient14294"
       gradientUnits="userSpaceOnUse"
       gradientTransform="translate(104.53835,7.1775364)"
       x1="14.096366"
       y1="95.427834"
       x2="32.852089"
       y2="95.427834" />
    <linearGradient
       inkscape:collect="always"
       xlink:href="#linearGradient4816"
       id="linearGradient14296"
       gradientUnits="userSpaceOnUse"
       gradientTransform="translate(122.22906,7.1775394)"
       x1="14.096366"
       y1="95.427834"
       x2="32.852089"
       y2="95.427834" />
    <linearGradient
       inkscape:collect="always"
       xlink:href="#linearGradient4816"
       id="linearGradient14298"
       gradientUnits="userSpaceOnUse"
       gradientTransform="translate(139.91978,7.1775314)"
       x1="14.096366"
       y1="95.427834"
       x2="32.852089"
       y2="95.427834" />
    <linearGradient
       inkscape:collect="always"
       xlink:href="#linearGradient4816"
       id="linearGradient14300"
       gradientUnits="userSpaceOnUse"
       gradientTransform="translate(157.6105,7.1775294)"
       x1="14.096366"
       y1="95.427834"
       x2="32.852089"
       y2="95.427834" />
    <linearGradient
       inkscape:collect="always"
       xlink:href="#linearGradient4816"
       id="linearGradient14302"
       gradientUnits="userSpaceOnUse"
       gradientTransform="translate(175.30123,7.1775394)"
       x1="14.096366"
       y1="95.427834"
       x2="32.852089"
       y2="95.427834" />
    <linearGradient
       inkscape:collect="always"
       xlink:href="#linearGradient4816"
       id="linearGradient14304"
       gradientUnits="userSpaceOnUse"
       gradientTransform="translate(192.99195,7.1775474)"
       x1="14.096366"
       y1="95.427834"
       x2="32.852089"
       y2="95.427834" />
    <linearGradient
       inkscape:collect="always"
       xlink:href="#linearGradient4816"
       id="linearGradient14306"
       gradientUnits="userSpaceOnUse"
       gradientTransform="translate(210.68267,7.1775354)"
       x1="14.096366"
       y1="95.427834"
       x2="32.852089"
       y2="95.427834" />
    <linearGradient
       inkscape:collect="always"
       xlink:href="#linearGradient4816"
       id="linearGradient14308"
       gradientUnits="userSpaceOnUse"
       gradientTransform="translate(228.37339,7.1775434)"
       x1="14.096366"
       y1="95.427834"
       x2="32.852089"
       y2="95.427834" />
    <linearGradient
       inkscape:collect="always"
       xlink:href="#linearGradient4816"
       id="linearGradient14310"
       gradientUnits="userSpaceOnUse"
       gradientTransform="translate(246.0641,7.1775354)"
       x1="14.096366"
       y1="95.427834"
       x2="32.852089"
       y2="95.427834" />
    <linearGradient
       inkscape:collect="always"
       xlink:href="#linearGradient4816"
       id="linearGradient14628"
       gradientUnits="userSpaceOnUse"
       gradientTransform="translate(86.318459,71.73587)"
       x1="14.096366"
       y1="95.427834"
       x2="32.852089"
       y2="95.427834" />
    <linearGradient
       inkscape:collect="always"
       xlink:href="#linearGradient4816"
       id="linearGradient14630"
       gradientUnits="userSpaceOnUse"
       gradientTransform="translate(104.00918,71.735869)"
       x1="14.096366"
       y1="95.427834"
       x2="32.852089"
       y2="95.427834" />
    <linearGradient
       inkscape:collect="always"
       xlink:href="#linearGradient4816"
       id="linearGradient14632"
       gradientUnits="userSpaceOnUse"
       gradientTransform="translate(121.6999,71.735872)"
       x1="14.096366"
       y1="95.427834"
       x2="32.852089"
       y2="95.427834" />
    <linearGradient
       inkscape:collect="always"
       xlink:href="#linearGradient4816"
       id="linearGradient14634"
       gradientUnits="userSpaceOnUse"
       gradientTransform="translate(139.39061,71.735864)"
       x1="14.096366"
       y1="95.427834"
       x2="32.852089"
       y2="95.427834" />
    <linearGradient
       inkscape:collect="always"
       xlink:href="#linearGradient4816"
       id="linearGradient14636"
       gradientUnits="userSpaceOnUse"
       gradientTransform="translate(157.08134,71.735862)"
       x1="14.096366"
       y1="95.427834"
       x2="32.852089"
       y2="95.427834" />
    <linearGradient
       inkscape:collect="always"
       xlink:href="#linearGradient4816"
       id="linearGradient14638"
       gradientUnits="userSpaceOnUse"
       gradientTransform="translate(174.77207,71.735872)"
       x1="14.096366"
       y1="95.427834"
       x2="32.852089"
       y2="95.427834" />
    <linearGradient
       inkscape:collect="always"
       xlink:href="#linearGradient4816"
       id="linearGradient14640"
       gradientUnits="userSpaceOnUse"
       gradientTransform="translate(192.46279,71.73588)"
       x1="14.096366"
       y1="95.427834"
       x2="32.852089"
       y2="95.427834" />
    <linearGradient
       inkscape:collect="always"
       xlink:href="#linearGradient4816"
       id="linearGradient14642"
       gradientUnits="userSpaceOnUse"
       gradientTransform="translate(210.15351,71.735868)"
       x1="14.096366"
       y1="95.427834"
       x2="32.852089"
       y2="95.427834" />
    <linearGradient
       inkscape:collect="always"
       xlink:href="#linearGradient4816"
       id="linearGradient14644"
       gradientUnits="userSpaceOnUse"
       gradientTransform="translate(227.84423,71.735876)"
       x1="14.096366"
       y1="95.427834"
       x2="32.852089"
       y2="95.427834" />
    <linearGradient
       inkscape:collect="always"
       xlink:href="#linearGradient4816"
       id="linearGradient14646"
       gradientUnits="userSpaceOnUse"
       gradientTransform="translate(245.53494,71.735868)"
       x1="14.096366"
       y1="95.427834"
       x2="32.852089"
       y2="95.427834" />
  </defs>
  <g
     inkscape:groupmode="layer"
     id="layer2"
     inkscape:label="Ebene 2">
    <rect
       style="display:inline;fill:#000000;fill-opacity:0;stroke:#eeeeee;stroke-width:1.065;stroke-miterlimit:4;stroke-dasharray:none;stroke-opacity:1"
       id="rect8876"
       width="186.79584"
       height="46.037498"
       x="97.631248"
       y="13.229166" />
    <rect
       style="display:inline;fill:#000000;fill-opacity:0;stroke:#eeeeee;stroke-width:0.942197;stroke-miterlimit:4;stroke-dasharray:none;stroke-opacity:1"
       id="rect8876-6"
       width="42.720734"
       height="157.5499"
       x="27.190676"
       y="26.926096" />
    <path
       style="fill:none;stroke:#000000;stroke-width:0.264583px;stroke-linecap:butt;stroke-linejoin:miter;stroke-opacity:1;marker-end:url(#Arrow1Lend)"
       d="m 50.006249,14.552083 -0.264583,9.525"
       id="path18949" />
  </g>
  <g
     inkscape:label="Ebene 1"
     inkscape:groupmode="layer"
     id="layer1"
     style="display:inline">
    <rect
       style="fill:#00ffff;stroke:url(#linearGradient4818-0);stroke-width:1.065;stroke-miterlimit:4;stroke-dasharray:none"
       id="rect4675-2"
       width="17.690722"
       height="18.030926"
       x="101.47649"
       y="30.089911" />
    <rect
       style="fill:#00ffff;stroke:url(#linearGradient840);stroke-width:1.065;stroke-miterlimit:4;stroke-dasharray:none"
       id="rect4675-2-1-7-4"
       width="17.690722"
       height="18.030926"
       x="48.404331"
       y="30.089909" />
    <rect
       style="fill:#002626;fill-opacity:0.173745;stroke:#ffffff;stroke-width:1.065;stroke-miterlimit:4;stroke-dasharray:none"
       id="rect5043-11"
       width="14.288658"
       height="12.58763"
       x="102.83732"
       y="15.649617" />
    <text
       xml:space="preserve"
       style="font-style:normal;font-weight:normal;font-size:10.5833px;line-height:1.25;font-family:sans-serif;letter-spacing:0px;word-spacing:0px;fill:#000000;fill-opacity:1;stroke:none;stroke-width:0.264583"
       x="106.57958"
       y="25.5156"
       id="text9515-988"><tspan
         sodipodi:role="line"
         id="tspan9513-50"
         style="stroke-width:0.264583"
         x="106.57958"
         y="25.5156">0</tspan></text>
    <rect
       style="fill:#00ffff;stroke:url(#linearGradient10651-1);stroke-width:1.065;stroke-miterlimit:4;stroke-dasharray:none"
       id="rect4675-9-5"
       width="17.690722"
       height="18.030926"
       x="119.16721"
       y="30.089911" />
    <rect
       style="fill:#002626;fill-opacity:0.173745;stroke:#ffffff;stroke-width:1.065;stroke-miterlimit:4;stroke-dasharray:none"
       id="rect5043-3-7"
       width="14.288658"
       height="12.58763"
       x="120.52804"
       y="15.649617" />
    <text
       xml:space="preserve"
       style="font-style:normal;font-weight:normal;font-size:10.5833px;line-height:1.25;font-family:sans-serif;letter-spacing:0px;word-spacing:0px;fill:#000000;fill-opacity:1;stroke:none;stroke-width:0.264583"
       x="124.27032"
       y="25.5156"
       id="text9515-6-6"><tspan
         id="tspan9513-7-2"
         style="stroke-width:0.264583"
         x="124.27032"
         y="25.5156"
         sodipodi:role="line">1</tspan></text>
    <rect
       style="fill:#00ffff;stroke:url(#linearGradient10684-3);stroke-width:1.065;stroke-miterlimit:4;stroke-dasharray:none"
       id="rect4675-3-5"
       width="17.690722"
       height="18.030926"
       x="136.85793"
       y="30.089911" />
    <rect
       style="fill:#002626;fill-opacity:0.173745;stroke:#ffffff;stroke-width:1.065;stroke-miterlimit:4;stroke-dasharray:none"
       id="rect5043-8-6"
       width="14.288658"
       height="12.58763"
       x="138.21875"
       y="15.649617" />
    <text
       xml:space="preserve"
       style="font-style:normal;font-weight:normal;font-size:10.5833px;line-height:1.25;font-family:sans-serif;letter-spacing:0px;word-spacing:0px;fill:#000000;fill-opacity:1;stroke:none;stroke-width:0.264583"
       x="141.96101"
       y="25.5156"
       id="text9515-7-5"><tspan
         sodipodi:role="line"
         id="tspan9513-1-9"
         style="stroke-width:0.264583"
         x="141.96101"
         y="25.5156">2</tspan></text>
    <rect
       style="fill:#00ffff;stroke:url(#linearGradient10717-5);stroke-width:1.065;stroke-miterlimit:4;stroke-dasharray:none"
       id="rect4675-0-6"
       width="17.690722"
       height="18.030926"
       x="154.54866"
       y="30.089903" />
    <rect
       style="fill:#002626;fill-opacity:0.173745;stroke:#ffffff;stroke-width:1.065;stroke-miterlimit:4;stroke-dasharray:none"
       id="rect5043-1-6"
       width="14.288658"
       height="12.58763"
       x="155.90947"
       y="15.64961" />
    <text
       xml:space="preserve"
       style="font-style:normal;font-weight:normal;font-size:10.5833px;line-height:1.25;font-family:sans-serif;letter-spacing:0px;word-spacing:0px;fill:#000000;fill-opacity:1;stroke:none;stroke-width:0.264583"
       x="159.65173"
       y="25.515593"
       id="text9515-9-4"><tspan
         sodipodi:role="line"
         id="tspan9513-2-2"
         style="stroke-width:0.264583"
         x="159.65173"
         y="25.515593">3</tspan></text>
    <rect
       style="fill:#00ffff;stroke:url(#linearGradient10750-4);stroke-width:1.065;stroke-miterlimit:4;stroke-dasharray:none"
       id="rect4675-8-7"
       width="17.690722"
       height="18.030926"
       x="172.23938"
       y="30.089903" />
    <rect
       style="fill:#002626;fill-opacity:0.173745;stroke:#ffffff;stroke-width:1.065;stroke-miterlimit:4;stroke-dasharray:none"
       id="rect5043-15-7"
       width="14.288658"
       height="12.58763"
       x="173.6002"
       y="15.64961" />
    <text
       xml:space="preserve"
       style="font-style:normal;font-weight:normal;font-size:10.5833px;line-height:1.25;font-family:sans-serif;letter-spacing:0px;word-spacing:0px;fill:#000000;fill-opacity:1;stroke:none;stroke-width:0.264583"
       x="177.34247"
       y="25.515593"
       id="text9515-5-7"><tspan
         sodipodi:role="line"
         id="tspan9513-6-9"
         style="stroke-width:0.264583"
         x="177.34247"
         y="25.515593">4</tspan></text>
    <rect
       style="fill:#00ffff;stroke:url(#linearGradient10783-2);stroke-width:1.065;stroke-miterlimit:4;stroke-dasharray:none"
       id="rect4675-90-5"
       width="17.690722"
       height="18.030926"
       x="189.9301"
       y="30.089911" />
    <rect
       style="fill:#002626;fill-opacity:0.173745;stroke:#ffffff;stroke-width:1.065;stroke-miterlimit:4;stroke-dasharray:none"
       id="rect5043-2-8"
       width="14.288658"
       height="12.58763"
       x="191.29092"
       y="15.649617" />
    <text
       xml:space="preserve"
       style="font-style:normal;font-weight:normal;font-size:10.5833px;line-height:1.25;font-family:sans-serif;letter-spacing:0px;word-spacing:0px;fill:#000000;fill-opacity:1;stroke:none;stroke-width:0.264583"
       x="195.03319"
       y="25.5156"
       id="text9515-8-32"><tspan
         sodipodi:role="line"
         id="tspan9513-27-81"
         style="stroke-width:0.264583"
         x="195.03319"
         y="25.5156">5</tspan></text>
    <rect
       style="fill:#00ffff;stroke:url(#linearGradient10816-7);stroke-width:1.065;stroke-miterlimit:4;stroke-dasharray:none"
       id="rect4675-1-4"
       width="17.690722"
       height="18.030926"
       x="207.62082"
       y="30.089911" />
    <rect
       style="fill:#002626;fill-opacity:0.173745;stroke:#ffffff;stroke-width:1.065;stroke-miterlimit:4;stroke-dasharray:none"
       id="rect5043-36-5"
       width="14.288658"
       height="12.58763"
       x="208.98164"
       y="15.649625" />
    <text
       xml:space="preserve"
       style="font-style:normal;font-weight:normal;font-size:10.5833px;line-height:1.25;font-family:sans-serif;letter-spacing:0px;word-spacing:0px;fill:#000000;fill-opacity:1;stroke:none;stroke-width:0.264583"
       x="212.72392"
       y="25.515608"
       id="text9515-98-55"><tspan
         sodipodi:role="line"
         id="tspan9513-5-8"
         style="stroke-width:0.264583"
         x="212.72392"
         y="25.515608">6</tspan></text>
    <rect
       style="fill:#00ffff;stroke:url(#linearGradient10849-1);stroke-width:1.065;stroke-miterlimit:4;stroke-dasharray:none"
       id="rect4675-30-2"
       width="17.690722"
       height="18.030926"
       x="225.31154"
       y="30.089911" />
    <rect
       style="fill:#002626;fill-opacity:0.173745;stroke:#ffffff;stroke-width:1.065;stroke-miterlimit:4;stroke-dasharray:none"
       id="rect5043-5-27"
       width="14.288658"
       height="12.58763"
       x="226.67236"
       y="15.649617" />
    <text
       xml:space="preserve"
       style="font-style:normal;font-weight:normal;font-size:10.5833px;line-height:1.25;font-family:sans-serif;letter-spacing:0px;word-spacing:0px;fill:#000000;fill-opacity:1;stroke:none;stroke-width:0.264583"
       x="230.41463"
       y="25.5156"
       id="text9515-4-4"><tspan
         sodipodi:role="line"
         id="tspan9513-23-8"
         style="stroke-width:0.264583"
         x="230.41463"
         y="25.5156">7</tspan></text>
    <rect
       style="fill:#00ffff;stroke:url(#linearGradient10882-2);stroke-width:1.065;stroke-miterlimit:4;stroke-dasharray:none"
       id="rect4675-09-1"
       width="17.690722"
       height="18.030926"
       x="243.00226"
       y="30.089911" />
    <rect
       style="fill:#002626;fill-opacity:0.173745;stroke:#ffffff;stroke-width:1.065;stroke-miterlimit:4;stroke-dasharray:none"
       id="rect5043-59-9"
       width="14.288658"
       height="12.58763"
       x="244.36308"
       y="15.649625" />
    <text
       xml:space="preserve"
       style="font-style:normal;font-weight:normal;font-size:10.5833px;line-height:1.25;font-family:sans-serif;letter-spacing:0px;word-spacing:0px;fill:#000000;fill-opacity:1;stroke:none;stroke-width:0.264583"
       x="248.10536"
       y="25.515608"
       id="text9515-46-5"><tspan
         sodipodi:role="line"
         id="tspan9513-72-34"
         style="stroke-width:0.264583"
         x="248.10536"
         y="25.515608">8</tspan></text>
    <rect
       style="fill:#00ffff;stroke:url(#linearGradient10915-7);stroke-width:1.065;stroke-miterlimit:4;stroke-dasharray:none"
       id="rect4675-7-8"
       width="17.690722"
       height="18.030926"
       x="260.69296"
       y="30.089911" />
    <rect
       style="fill:#002626;fill-opacity:0.173745;stroke:#ffffff;stroke-width:1.065;stroke-miterlimit:4;stroke-dasharray:none"
       id="rect5043-6-28"
       width="14.288658"
       height="12.58763"
       x="262.0538"
       y="15.649617" />
    <text
       xml:space="preserve"
       style="font-style:normal;font-weight:normal;font-size:10.5833px;line-height:1.25;font-family:sans-serif;letter-spacing:0px;word-spacing:0px;fill:#000000;fill-opacity:1;stroke:none;stroke-width:0.264583"
       x="265.79605"
       y="25.5156"
       id="text9515-2-6"><tspan
         sodipodi:role="line"
         id="tspan9513-69-73"
         style="stroke-width:0.264583"
         x="265.79605"
         y="25.5156">9</tspan></text>
    <rect
       style="display:inline;fill:#000000;fill-opacity:0;stroke:#eeeeee;stroke-width:1.065;stroke-miterlimit:4;stroke-dasharray:none;stroke-opacity:1"
       id="rect8876-2"
       width="186.79584"
       height="46.037498"
       x="97.631248"
       y="76.729164" />
    <rect
       style="display:inline;fill:#00ffff;stroke:url(#linearGradient14292);stroke-width:1.065;stroke-miterlimit:4;stroke-dasharray:none"
       id="rect4675-2-6"
       width="17.690722"
       height="18.030926"
       x="101.47649"
       y="93.589912" />
    <rect
       style="display:inline;fill:#002626;fill-opacity:0.173745;stroke:#ffffff;stroke-width:1.065;stroke-miterlimit:4;stroke-dasharray:none"
       id="rect5043-11-4"
       width="14.288658"
       height="12.58763"
       x="102.83732"
       y="79.14962" />
    <text
       xml:space="preserve"
       style="font-style:normal;font-weight:normal;font-size:10.5833px;line-height:1.25;font-family:sans-serif;letter-spacing:0px;word-spacing:0px;display:inline;fill:#000000;fill-opacity:1;stroke:none;stroke-width:0.264583"
       x="106.57958"
       y="89.015602"
       id="text9515-988-1"><tspan
         sodipodi:role="line"
         id="tspan9513-50-9"
         style="stroke-width:0.264583"
         x="106.57958"
         y="89.015602">0</tspan></text>
    <rect
       style="display:inline;fill:#00ffff;stroke:url(#linearGradient14294);stroke-width:1.065;stroke-miterlimit:4;stroke-dasharray:none"
       id="rect4675-9-5-2"
       width="17.690722"
       height="18.030926"
       x="119.16721"
       y="93.589912" />
    <rect
       style="display:inline;fill:#002626;fill-opacity:0.173745;stroke:#ffffff;stroke-width:1.065;stroke-miterlimit:4;stroke-dasharray:none"
       id="rect5043-3-7-6"
       width="14.288658"
       height="12.58763"
       x="120.52804"
       y="79.14962" />
    <text
       xml:space="preserve"
       style="font-style:normal;font-weight:normal;font-size:10.5833px;line-height:1.25;font-family:sans-serif;letter-spacing:0px;word-spacing:0px;display:inline;fill:#000000;fill-opacity:1;stroke:none;stroke-width:0.264583"
       x="124.27032"
       y="89.015602"
       id="text9515-6-6-6"><tspan
         id="tspan9513-7-2-8"
         style="stroke-width:0.264583"
         x="124.27032"
         y="89.015602"
         sodipodi:role="line">1</tspan></text>
    <rect
       style="display:inline;fill:#00ffff;stroke:url(#linearGradient14296);stroke-width:1.065;stroke-miterlimit:4;stroke-dasharray:none"
       id="rect4675-3-5-3"
       width="17.690722"
       height="18.030926"
       x="136.85793"
       y="93.589912" />
    <rect
       style="display:inline;fill:#002626;fill-opacity:0.173745;stroke:#ffffff;stroke-width:1.065;stroke-miterlimit:4;stroke-dasharray:none"
       id="rect5043-8-6-5"
       width="14.288658"
       height="12.58763"
       x="138.21875"
       y="79.14962" />
    <text
       xml:space="preserve"
       style="font-style:normal;font-weight:normal;font-size:10.5833px;line-height:1.25;font-family:sans-serif;letter-spacing:0px;word-spacing:0px;display:inline;fill:#000000;fill-opacity:1;stroke:none;stroke-width:0.264583"
       x="141.96101"
       y="89.015602"
       id="text9515-7-5-4"><tspan
         sodipodi:role="line"
         id="tspan9513-1-9-9"
         style="stroke-width:0.264583"
         x="141.96101"
         y="89.015602">2</tspan></text>
    <rect
       style="display:inline;fill:#00ffff;stroke:url(#linearGradient14298);stroke-width:1.065;stroke-miterlimit:4;stroke-dasharray:none"
       id="rect4675-0-6-9"
       width="17.690722"
       height="18.030926"
       x="154.54866"
       y="93.589905" />
    <rect
       style="display:inline;fill:#002626;fill-opacity:0.173745;stroke:#ffffff;stroke-width:1.065;stroke-miterlimit:4;stroke-dasharray:none"
       id="rect5043-1-6-4"
       width="14.288658"
       height="12.58763"
       x="155.90947"
       y="79.149612" />
    <text
       xml:space="preserve"
       style="font-style:normal;font-weight:normal;font-size:10.5833px;line-height:1.25;font-family:sans-serif;letter-spacing:0px;word-spacing:0px;display:inline;fill:#000000;fill-opacity:1;stroke:none;stroke-width:0.264583"
       x="159.65173"
       y="89.015594"
       id="text9515-9-4-6"><tspan
         sodipodi:role="line"
         id="tspan9513-2-2-7"
         style="stroke-width:0.264583"
         x="159.65173"
         y="89.015594">3</tspan></text>
    <rect
       style="display:inline;fill:#00ffff;stroke:url(#linearGradient14300);stroke-width:1.065;stroke-miterlimit:4;stroke-dasharray:none"
       id="rect4675-8-7-7"
       width="17.690722"
       height="18.030926"
       x="172.23938"
       y="93.589905" />
    <rect
       style="display:inline;fill:#002626;fill-opacity:0.173745;stroke:#ffffff;stroke-width:1.065;stroke-miterlimit:4;stroke-dasharray:none"
       id="rect5043-15-7-0"
       width="14.288658"
       height="12.58763"
       x="173.6002"
       y="79.149612" />
    <text
       xml:space="preserve"
       style="font-style:normal;font-weight:normal;font-size:10.5833px;line-height:1.25;font-family:sans-serif;letter-spacing:0px;word-spacing:0px;display:inline;fill:#000000;fill-opacity:1;stroke:none;stroke-width:0.264583"
       x="177.34247"
       y="89.015594"
       id="text9515-5-7-4"><tspan
         sodipodi:role="line"
         id="tspan9513-6-9-4"
         style="stroke-width:0.264583"
         x="177.34247"
         y="89.015594">4</tspan></text>
    <rect
       style="display:inline;fill:#00ffff;stroke:url(#linearGradient14302);stroke-width:1.065;stroke-miterlimit:4;stroke-dasharray:none"
       id="rect4675-90-5-7"
       width="17.690722"
       height="18.030926"
       x="189.9301"
       y="93.589912" />
    <rect
       style="display:inline;fill:#002626;fill-opacity:0.173745;stroke:#ffffff;stroke-width:1.065;stroke-miterlimit:4;stroke-dasharray:none"
       id="rect5043-2-8-8"
       width="14.288658"
       height="12.58763"
       x="191.29092"
       y="79.14962" />
    <text
       xml:space="preserve"
       style="font-style:normal;font-weight:normal;font-size:10.5833px;line-height:1.25;font-family:sans-serif;letter-spacing:0px;word-spacing:0px;display:inline;fill:#000000;fill-opacity:1;stroke:none;stroke-width:0.264583"
       x="195.03319"
       y="89.015602"
       id="text9515-8-32-8"><tspan
         sodipodi:role="line"
         id="tspan9513-27-81-7"
         style="stroke-width:0.264583"
         x="195.03319"
         y="89.015602">5</tspan></text>
    <rect
       style="display:inline;fill:#00ffff;stroke:url(#linearGradient14304);stroke-width:1.065;stroke-miterlimit:4;stroke-dasharray:none"
       id="rect4675-1-4-2"
       width="17.690722"
       height="18.030926"
       x="207.62082"
       y="93.589912" />
    <rect
       style="display:inline;fill:#002626;fill-opacity:0.173745;stroke:#ffffff;stroke-width:1.065;stroke-miterlimit:4;stroke-dasharray:none"
       id="rect5043-36-5-1"
       width="14.288658"
       height="12.58763"
       x="208.98164"
       y="79.149628" />
    <text
       xml:space="preserve"
       style="font-style:normal;font-weight:normal;font-size:10.5833px;line-height:1.25;font-family:sans-serif;letter-spacing:0px;word-spacing:0px;display:inline;fill:#000000;fill-opacity:1;stroke:none;stroke-width:0.264583"
       x="212.72392"
       y="89.01561"
       id="text9515-98-55-0"><tspan
         sodipodi:role="line"
         id="tspan9513-5-8-4"
         style="stroke-width:0.264583"
         x="212.72392"
         y="89.01561">6</tspan></text>
    <rect
       style="display:inline;fill:#00ffff;stroke:url(#linearGradient14306);stroke-width:1.065;stroke-miterlimit:4;stroke-dasharray:none"
       id="rect4675-30-2-7"
       width="17.690722"
       height="18.030926"
       x="225.31154"
       y="93.589912" />
    <rect
       style="display:inline;fill:#002626;fill-opacity:0.173745;stroke:#ffffff;stroke-width:1.065;stroke-miterlimit:4;stroke-dasharray:none"
       id="rect5043-5-27-6"
       width="14.288658"
       height="12.58763"
       x="226.67236"
       y="79.14962" />
    <text
       xml:space="preserve"
       style="font-style:normal;font-weight:normal;font-size:10.5833px;line-height:1.25;font-family:sans-serif;letter-spacing:0px;word-spacing:0px;display:inline;fill:#000000;fill-opacity:1;stroke:none;stroke-width:0.264583"
       x="230.41463"
       y="89.015602"
       id="text9515-4-4-9"><tspan
         sodipodi:role="line"
         id="tspan9513-23-8-5"
         style="stroke-width:0.264583"
         x="230.41463"
         y="89.015602">7</tspan></text>
    <rect
       style="display:inline;fill:#00ffff;stroke:url(#linearGradient14308);stroke-width:1.065;stroke-miterlimit:4;stroke-dasharray:none"
       id="rect4675-09-1-3"
       width="17.690722"
       height="18.030926"
       x="243.00226"
       y="93.589912" />
    <rect
       style="display:inline;fill:#002626;fill-opacity:0.173745;stroke:#ffffff;stroke-width:1.065;stroke-miterlimit:4;stroke-dasharray:none"
       id="rect5043-59-9-3"
       width="14.288658"
       height="12.58763"
       x="244.36308"
       y="79.149628" />
    <text
       xml:space="preserve"
       style="font-style:normal;font-weight:normal;font-size:10.5833px;line-height:1.25;font-family:sans-serif;letter-spacing:0px;word-spacing:0px;display:inline;fill:#000000;fill-opacity:1;stroke:none;stroke-width:0.264583"
       x="248.10536"
       y="89.01561"
       id="text9515-46-5-0"><tspan
         sodipodi:role="line"
         id="tspan9513-72-34-1"
         style="stroke-width:0.264583"
         x="248.10536"
         y="89.01561">8</tspan></text>
    <rect
       style="display:inline;fill:#00ffff;stroke:url(#linearGradient14310);stroke-width:1.065;stroke-miterlimit:4;stroke-dasharray:none"
       id="rect4675-7-8-2"
       width="17.690722"
       height="18.030926"
       x="260.69296"
       y="93.589912" />
    <rect
       style="display:inline;fill:#002626;fill-opacity:0.173745;stroke:#ffffff;stroke-width:1.065;stroke-miterlimit:4;stroke-dasharray:none"
       id="rect5043-6-28-6"
       width="14.288658"
       height="12.58763"
       x="262.0538"
       y="79.14962" />
    <text
       xml:space="preserve"
       style="font-style:normal;font-weight:normal;font-size:10.5833px;line-height:1.25;font-family:sans-serif;letter-spacing:0px;word-spacing:0px;display:inline;fill:#000000;fill-opacity:1;stroke:none;stroke-width:0.264583"
       x="265.79605"
       y="89.015602"
       id="text9515-2-6-1"><tspan
         sodipodi:role="line"
         id="tspan9513-69-73-8"
         style="stroke-width:0.264583"
         x="265.79605"
         y="89.015602">9</tspan></text>
    <rect
       style="fill:#002626;fill-opacity:0.173745;stroke:#ffffff;stroke-width:1.065;stroke-miterlimit:4;stroke-dasharray:none"
       id="rect5043-11-9"
       width="14.288658"
       height="12.58763"
       x="32.278587"
       y="32.599937" />
    <text
       xml:space="preserve"
       style="font-style:normal;font-weight:normal;font-size:10.5833px;line-height:1.25;font-family:sans-serif;letter-spacing:0px;word-spacing:0px;fill:#000000;fill-opacity:1;stroke:none;stroke-width:0.264583"
       x="36.020851"
       y="42.465919"
       id="text9515-988-0"><tspan
         sodipodi:role="line"
         id="tspan9513-50-5"
         style="stroke-width:0.264583"
         x="36.020851"
         y="42.465919">0</tspan></text>
    <text
       xml:space="preserve"
       style="font-style:normal;font-weight:normal;font-size:10.5833px;line-height:1.25;font-family:sans-serif;letter-spacing:0px;word-spacing:0px;display:inline;fill:#000000;fill-opacity:1;stroke:none;stroke-width:0.264583"
       x="35.529621"
       y="12.054548"
       id="text9515-988-0-5"><tspan
         id="tspan9513-50-5-1"
         style="stroke-width:0.264583"
         x="35.529621"
         y="12.054548"
         sodipodi:role="line">Array</tspan></text>
    <rect
       style="fill:#00ffff;stroke:url(#linearGradient4691);stroke-width:1.065;stroke-miterlimit:4;stroke-dasharray:none"
       id="rect4675-2-1-7-4-6"
       width="17.690722"
       height="18.030926"
       x="47.889584"
       y="92.271309" />
    <rect
       style="fill:#002626;fill-opacity:0.173745;stroke:#ffffff;stroke-width:1.065;stroke-miterlimit:4;stroke-dasharray:none"
       id="rect5043-11-9-2"
       width="14.288658"
       height="12.58763"
       x="31.76384"
       y="94.781342" />
    <text
       xml:space="preserve"
       style="font-style:normal;font-weight:normal;font-size:10.5833px;line-height:1.25;font-family:sans-serif;letter-spacing:0px;word-spacing:0px;fill:#000000;fill-opacity:1;stroke:none;stroke-width:0.264583"
       x="35.506104"
       y="104.64732"
       id="text9515-988-0-0"><tspan
         sodipodi:role="line"
         id="tspan9513-50-5-9"
         style="stroke-width:0.264583"
         x="35.506104"
         y="104.64732">1</tspan></text>
    <rect
       style="fill:#00ffff;stroke:url(#linearGradient4724);stroke-width:1.065;stroke-miterlimit:4;stroke-dasharray:none"
       id="rect4675-2-1-7-4-8"
       width="17.690722"
       height="18.030926"
       x="46.81683"
       y="159.20657" />
    <rect
       style="fill:#002626;fill-opacity:0.173745;stroke:#ffffff;stroke-width:1.065;stroke-miterlimit:4;stroke-dasharray:none"
       id="rect5043-11-9-9"
       width="14.288658"
       height="12.58763"
       x="30.691086"
       y="161.7166" />
    <text
       xml:space="preserve"
       style="font-style:normal;font-weight:normal;font-size:10.5833px;line-height:1.25;font-family:sans-serif;letter-spacing:0px;word-spacing:0px;fill:#000000;fill-opacity:1;stroke:none;stroke-width:0.264583"
       x="34.43335"
       y="171.58258"
       id="text9515-988-0-4"><tspan
         sodipodi:role="line"
         id="tspan9513-50-5-5"
         style="stroke-width:0.264583"
         x="34.43335"
         y="171.58258">2</tspan></text>
    <path
       style="fill:none;stroke:#000000;stroke-width:0.264583px;stroke-linecap:butt;stroke-linejoin:miter;stroke-opacity:1;marker-end:url(#Arrow1Lend)"
       d="m 70.643749,38.629167 c 23.283333,0 23.283333,0 23.283333,0"
       id="path7043" />
    <path
       style="display:inline;fill:none;stroke:#000000;stroke-width:0.264583px;stroke-linecap:butt;stroke-linejoin:miter;stroke-opacity:1;marker-end:url(#Arrow1Lend-5)"
       d="m 70.386925,100.27708 c 23.283333,0 23.283333,0 23.283333,0"
       id="path7043-5" />
    <path
       style="display:inline;fill:none;stroke:#000000;stroke-width:0.264583px;stroke-linecap:butt;stroke-linejoin:miter;stroke-opacity:1;marker-end:url(#Arrow1Lend-6)"
       d="m 70.651508,167.21668 c 23.283333,0 23.283333,0 23.283333,0"
       id="path7043-2" />
    <rect
       style="display:inline;fill:#000000;fill-opacity:0;stroke:#eeeeee;stroke-width:1.065;stroke-miterlimit:4;stroke-dasharray:none;stroke-opacity:1"
       id="rect8876-7"
       width="186.79584"
       height="46.037498"
       x="97.102081"
       y="141.28749" />
    <rect
       style="display:inline;fill:#00ffff;stroke:url(#linearGradient14628);stroke-width:1.065;stroke-miterlimit:4;stroke-dasharray:none"
       id="rect4675-2-65"
       width="17.690722"
       height="18.030926"
       x="100.94733"
       y="158.14824" />
    <rect
       style="display:inline;fill:#002626;fill-opacity:0.173745;stroke:#ffffff;stroke-width:1.065;stroke-miterlimit:4;stroke-dasharray:none"
       id="rect5043-11-95"
       width="14.288658"
       height="12.58763"
       x="102.30815"
       y="143.70795" />
    <text
       xml:space="preserve"
       style="font-style:normal;font-weight:normal;font-size:10.5833px;line-height:1.25;font-family:sans-serif;letter-spacing:0px;word-spacing:0px;display:inline;fill:#000000;fill-opacity:1;stroke:none;stroke-width:0.264583"
       x="106.05042"
       y="153.57393"
       id="text9515-988-07"><tspan
         sodipodi:role="line"
         id="tspan9513-50-58"
         style="stroke-width:0.264583"
         x="106.05042"
         y="153.57393">0</tspan></text>
    <rect
       style="display:inline;fill:#00ffff;stroke:url(#linearGradient14630);stroke-width:1.065;stroke-miterlimit:4;stroke-dasharray:none"
       id="rect4675-9-5-6"
       width="17.690722"
       height="18.030926"
       x="118.63805"
       y="158.14824" />
    <rect
       style="display:inline;fill:#002626;fill-opacity:0.173745;stroke:#ffffff;stroke-width:1.065;stroke-miterlimit:4;stroke-dasharray:none"
       id="rect5043-3-7-5"
       width="14.288658"
       height="12.58763"
       x="119.99888"
       y="143.70795" />
    <text
       xml:space="preserve"
       style="font-style:normal;font-weight:normal;font-size:10.5833px;line-height:1.25;font-family:sans-serif;letter-spacing:0px;word-spacing:0px;display:inline;fill:#000000;fill-opacity:1;stroke:none;stroke-width:0.264583"
       x="123.74116"
       y="153.57393"
       id="text9515-6-6-9"><tspan
         id="tspan9513-7-2-0"
         style="stroke-width:0.264583"
         x="123.74116"
         y="153.57393"
         sodipodi:role="line">1</tspan></text>
    <rect
       style="display:inline;fill:#00ffff;stroke:url(#linearGradient14632);stroke-width:1.065;stroke-miterlimit:4;stroke-dasharray:none"
       id="rect4675-3-5-5"
       width="17.690722"
       height="18.030926"
       x="136.32877"
       y="158.14824" />
    <rect
       style="display:inline;fill:#002626;fill-opacity:0.173745;stroke:#ffffff;stroke-width:1.065;stroke-miterlimit:4;stroke-dasharray:none"
       id="rect5043-8-6-2"
       width="14.288658"
       height="12.58763"
       x="137.68959"
       y="143.70795" />
    <text
       xml:space="preserve"
       style="font-style:normal;font-weight:normal;font-size:10.5833px;line-height:1.25;font-family:sans-serif;letter-spacing:0px;word-spacing:0px;display:inline;fill:#000000;fill-opacity:1;stroke:none;stroke-width:0.264583"
       x="141.43185"
       y="153.57393"
       id="text9515-7-5-7"><tspan
         sodipodi:role="line"
         id="tspan9513-1-9-5"
         style="stroke-width:0.264583"
         x="141.43185"
         y="153.57393">2</tspan></text>
    <rect
       style="display:inline;fill:#00ffff;stroke:url(#linearGradient14634);stroke-width:1.065;stroke-miterlimit:4;stroke-dasharray:none"
       id="rect4675-0-6-6"
       width="17.690722"
       height="18.030926"
       x="154.0195"
       y="158.14822" />
    <rect
       style="display:inline;fill:#002626;fill-opacity:0.173745;stroke:#ffffff;stroke-width:1.065;stroke-miterlimit:4;stroke-dasharray:none"
       id="rect5043-1-6-8"
       width="14.288658"
       height="12.58763"
       x="155.38031"
       y="143.70793" />
    <text
       xml:space="preserve"
       style="font-style:normal;font-weight:normal;font-size:10.5833px;line-height:1.25;font-family:sans-serif;letter-spacing:0px;word-spacing:0px;display:inline;fill:#000000;fill-opacity:1;stroke:none;stroke-width:0.264583"
       x="159.12257"
       y="153.57391"
       id="text9515-9-4-9"><tspan
         sodipodi:role="line"
         id="tspan9513-2-2-1"
         style="stroke-width:0.264583"
         x="159.12257"
         y="153.57391">3</tspan></text>
    <rect
       style="display:inline;fill:#00ffff;stroke:url(#linearGradient14636);stroke-width:1.065;stroke-miterlimit:4;stroke-dasharray:none"
       id="rect4675-8-7-2"
       width="17.690722"
       height="18.030926"
       x="171.71021"
       y="158.14822" />
    <rect
       style="display:inline;fill:#002626;fill-opacity:0.173745;stroke:#ffffff;stroke-width:1.065;stroke-miterlimit:4;stroke-dasharray:none"
       id="rect5043-15-7-9"
       width="14.288658"
       height="12.58763"
       x="173.07103"
       y="143.70793" />
    <text
       xml:space="preserve"
       style="font-style:normal;font-weight:normal;font-size:10.5833px;line-height:1.25;font-family:sans-serif;letter-spacing:0px;word-spacing:0px;display:inline;fill:#000000;fill-opacity:1;stroke:none;stroke-width:0.264583"
       x="176.81329"
       y="153.57391"
       id="text9515-5-7-3"><tspan
         sodipodi:role="line"
         id="tspan9513-6-9-0"
         style="stroke-width:0.264583"
         x="176.81329"
         y="153.57391">4</tspan></text>
    <rect
       style="display:inline;fill:#00ffff;stroke:url(#linearGradient14638);stroke-width:1.065;stroke-miterlimit:4;stroke-dasharray:none"
       id="rect4675-90-5-1"
       width="17.690722"
       height="18.030926"
       x="189.40092"
       y="158.14824" />
    <rect
       style="display:inline;fill:#002626;fill-opacity:0.173745;stroke:#ffffff;stroke-width:1.065;stroke-miterlimit:4;stroke-dasharray:none"
       id="rect5043-2-8-81"
       width="14.288658"
       height="12.58763"
       x="190.76175"
       y="143.70795" />
    <text
       xml:space="preserve"
       style="font-style:normal;font-weight:normal;font-size:10.5833px;line-height:1.25;font-family:sans-serif;letter-spacing:0px;word-spacing:0px;display:inline;fill:#000000;fill-opacity:1;stroke:none;stroke-width:0.264583"
       x="194.50401"
       y="153.57393"
       id="text9515-8-32-7"><tspan
         sodipodi:role="line"
         id="tspan9513-27-81-3"
         style="stroke-width:0.264583"
         x="194.50401"
         y="153.57393">5</tspan></text>
    <rect
       style="display:inline;fill:#00ffff;stroke:url(#linearGradient14640);stroke-width:1.065;stroke-miterlimit:4;stroke-dasharray:none"
       id="rect4675-1-4-1"
       width="17.690722"
       height="18.030926"
       x="207.09164"
       y="158.14824" />
    <rect
       style="display:inline;fill:#002626;fill-opacity:0.173745;stroke:#ffffff;stroke-width:1.065;stroke-miterlimit:4;stroke-dasharray:none"
       id="rect5043-36-5-8"
       width="14.288658"
       height="12.58763"
       x="208.45247"
       y="143.70795" />
    <text
       xml:space="preserve"
       style="font-style:normal;font-weight:normal;font-size:10.5833px;line-height:1.25;font-family:sans-serif;letter-spacing:0px;word-spacing:0px;display:inline;fill:#000000;fill-opacity:1;stroke:none;stroke-width:0.264583"
       x="212.19475"
       y="153.57393"
       id="text9515-98-55-2"><tspan
         sodipodi:role="line"
         id="tspan9513-5-8-6"
         style="stroke-width:0.264583"
         x="212.19475"
         y="153.57393">6</tspan></text>
    <rect
       style="display:inline;fill:#00ffff;stroke:url(#linearGradient14642);stroke-width:1.065;stroke-miterlimit:4;stroke-dasharray:none"
       id="rect4675-30-2-3"
       width="17.690722"
       height="18.030926"
       x="224.78236"
       y="158.14824" />
    <rect
       style="display:inline;fill:#002626;fill-opacity:0.173745;stroke:#ffffff;stroke-width:1.065;stroke-miterlimit:4;stroke-dasharray:none"
       id="rect5043-5-27-0"
       width="14.288658"
       height="12.58763"
       x="226.14319"
       y="143.70795" />
    <text
       xml:space="preserve"
       style="font-style:normal;font-weight:normal;font-size:10.5833px;line-height:1.25;font-family:sans-serif;letter-spacing:0px;word-spacing:0px;display:inline;fill:#000000;fill-opacity:1;stroke:none;stroke-width:0.264583"
       x="229.88545"
       y="153.57393"
       id="text9515-4-4-8"><tspan
         sodipodi:role="line"
         id="tspan9513-23-8-9"
         style="stroke-width:0.264583"
         x="229.88545"
         y="153.57393">7</tspan></text>
    <rect
       style="display:inline;fill:#00ffff;stroke:url(#linearGradient14644);stroke-width:1.065;stroke-miterlimit:4;stroke-dasharray:none"
       id="rect4675-09-1-35"
       width="17.690722"
       height="18.030926"
       x="242.47308"
       y="158.14824" />
    <rect
       style="display:inline;fill:#002626;fill-opacity:0.173745;stroke:#ffffff;stroke-width:1.065;stroke-miterlimit:4;stroke-dasharray:none"
       id="rect5043-59-9-39"
       width="14.288658"
       height="12.58763"
       x="243.83391"
       y="143.70795" />
    <text
       xml:space="preserve"
       style="font-style:normal;font-weight:normal;font-size:10.5833px;line-height:1.25;font-family:sans-serif;letter-spacing:0px;word-spacing:0px;display:inline;fill:#000000;fill-opacity:1;stroke:none;stroke-width:0.264583"
       x="247.57619"
       y="153.57393"
       id="text9515-46-5-2"><tspan
         sodipodi:role="line"
         id="tspan9513-72-34-5"
         style="stroke-width:0.264583"
         x="247.57619"
         y="153.57393">8</tspan></text>
    <rect
       style="display:inline;fill:#00ffff;stroke:url(#linearGradient14646);stroke-width:1.065;stroke-miterlimit:4;stroke-dasharray:none"
       id="rect4675-7-8-28"
       width="17.690722"
       height="18.030926"
       x="260.16379"
       y="158.14824" />
    <rect
       style="display:inline;fill:#002626;fill-opacity:0.173745;stroke:#ffffff;stroke-width:1.065;stroke-miterlimit:4;stroke-dasharray:none"
       id="rect5043-6-28-4"
       width="14.288658"
       height="12.58763"
       x="261.52463"
       y="143.70795" />
    <text
       xml:space="preserve"
       style="font-style:normal;font-weight:normal;font-size:10.5833px;line-height:1.25;font-family:sans-serif;letter-spacing:0px;word-spacing:0px;display:inline;fill:#000000;fill-opacity:1;stroke:none;stroke-width:0.264583"
       x="265.26688"
       y="153.57393"
       id="text9515-2-6-9"><tspan
         sodipodi:role="line"
         id="tspan9513-69-73-80"
         style="stroke-width:0.264583"
         x="265.26688"
         y="153.57393">9</tspan></text>
  </g>
</svg>
