\begin{thebibliography}{DSRL17}

\bibitem[Arn06]{Arnold2006}
Ken Arnold.
\newblock {\em The Java programming language}.
\newblock Addison-Wesley, Upper Saddle River, NJ, 2006.

\bibitem[CS]{Chen}
Tao Chen and T.~Sobh.
\newblock A tool for data structure visualization and user-defined algorithm
  animation.
\newblock In {\em 31st Annual Frontiers in Education Conference. Impact on
  Engineering and Science Education. Conference Proceedings (Cat.
  No.01CH37193)}. {IEEE}.

\bibitem[DSRL17]{DavidsonShivers2017}
Gayle~V. Davidson-Shivers, Karen~L. Rasmussen, and Patrick~R. Lowenthal.
\newblock {\em Web-Based Learning}.
\newblock Springer-Verlag GmbH, November 2017.

\bibitem[May02]{MAYER200285}
Richard~E. Mayer.
\newblock Multimedia learning.
\newblock volume~41 of {\em Psychology of Learning and Motivation}, pages
  85--139. Academic Press, 2002.

\bibitem[RHG18]{RalfHartmutGueting2018}
Stefan~Dieker Ralf Hartmut~Güting.
\newblock {\em Datenstrukturen und Algorithmen}.
\newblock Springer-Verlag GmbH, July 2018.

\bibitem[Ull21]{Ullenboom2021}
Christian Ullenboom.
\newblock {\em Java ist auch eine Insel}.
\newblock Rheinwerk Verlag GmbH, November 2021.

\bibitem[V{\'e}g16]{Vgh2016JAVASCRIPTLF}
Ladislav V{\'e}gh.
\newblock Javascript library for developing interactive micro-level animations
  for teaching and learning algorithms on one-dimensional arrays.
\newblock 2016.

\end{thebibliography}
