\relax 
\providecommand\hyper@newdestlabel[2]{}
\@writefile{toc}{\contentsline {section}{Anhang}{27}{section*.3}\protected@file@percent }
\@writefile{lof}{\contentsline {figure}{\numberline {5.14}{\ignorespaces Komplette Webseite mit Header und Footer\relax }}{27}{figure.14}\protected@file@percent }
\newlabel{fig:Webseite}{{5.14}{27}{Komplette Webseite mit Header und Footer\relax }{figure.14}{}}
\@writefile{lof}{\contentsline {figure}{\numberline {5.15}{\ignorespaces Dateiverzeichnis der Anwendung\relax }}{28}{figure.15}\protected@file@percent }
\newlabel{fig:Dateien}{{5.15}{28}{Dateiverzeichnis der Anwendung\relax }{figure.15}{}}
\@setckpt{anhang/anhang}{
\setcounter{page}{29}
\setcounter{equation}{0}
\setcounter{enumi}{0}
\setcounter{enumii}{0}
\setcounter{enumiii}{0}
\setcounter{enumiv}{0}
\setcounter{footnote}{0}
\setcounter{mpfootnote}{0}
\setcounter{part}{0}
\setcounter{section}{5}
\setcounter{subsection}{0}
\setcounter{subsubsection}{0}
\setcounter{paragraph}{0}
\setcounter{subparagraph}{0}
\setcounter{figure}{15}
\setcounter{table}{1}
\setcounter{NAT@ctr}{0}
\setcounter{float@type}{8}
\setcounter{caption@flags}{0}
\setcounter{continuedfloat}{0}
\setcounter{subfigure}{0}
\setcounter{subtable}{0}
\setcounter{lstnumber}{4}
\setcounter{Item}{0}
\setcounter{Hfootnote}{0}
\setcounter{bookmark@seq@number}{36}
\setcounter{lstlisting}{11}
\setcounter{section@level}{1}
}
