\relax 
\providecommand\hyper@newdestlabel[2]{}
\citation{RalfHartmutGueting2018}
\citation{RalfHartmutGueting2018}
\@writefile{toc}{\contentsline {section}{\numberline {2}Grundlagen}{3}{section.2}\protected@file@percent }
\@writefile{toc}{\contentsline {subsection}{\numberline {2.1}Arrays allgemein}{3}{subsection.2.1}\protected@file@percent }
\@writefile{toc}{\contentsline {subsubsection}{\numberline {2.1.1}Erstellung und Repräsentation}{3}{subsubsection.2.1.1}\protected@file@percent }
\newlabel{sec:Repräsentation}{{2.1.1}{3}{Erstellung und Repräsentation}{subsubsection.2.1.1}{}}
\citation{RalfHartmutGueting2018}
\citation{RalfHartmutGueting2018}
\@writefile{lof}{\contentsline {figure}{\numberline {2.1}{\ignorespaces 1-D Array\relax }}{4}{figure.1}\protected@file@percent }
\providecommand*\caption@xref[2]{\@setref\relax\@undefined{#1}}
\newlabel{fig:1-D Array}{{2.1}{4}{1-D Array\relax }{figure.1}{}}
\@writefile{lof}{\contentsline {figure}{\numberline {2.2}{\ignorespaces 2-D Array\relax }}{4}{figure.2}\protected@file@percent }
\newlabel{fig:2-D Array}{{2.2}{4}{2-D Array\relax }{figure.2}{}}
\citation{Ullenboom2021}
\citation{Arnold2006}
\@writefile{toc}{\contentsline {subsubsection}{\numberline {2.1.2}Funktionalitäten}{5}{subsubsection.2.1.2}\protected@file@percent }
\@writefile{toc}{\contentsline {subsection}{\numberline {2.2}Arrays in Java}{5}{subsection.2.2}\protected@file@percent }
\@writefile{toc}{\contentsline {subsubsection}{\numberline {2.2.1}Initialisierung}{5}{subsubsection.2.2.1}\protected@file@percent }
\newlabel{sec:Initialisierung}{{2.2.1}{5}{Initialisierung}{subsubsection.2.2.1}{}}
\newlabel{lst:Initialisierung}{{1}{5}{Deklaration und Instanziierung des Arrays getrennt}{lstlisting.1}{}}
\@writefile{lol}{\contentsline {lstlisting}{\numberline {1}Deklaration und Instanziierung des Arrays getrennt}{5}{lstlisting.1}\protected@file@percent }
\newlabel{lst:InitialisierungKombi}{{2}{5}{Deklaration und Instanziierung des Arrays kombiniert}{lstlisting.2}{}}
\@writefile{lol}{\contentsline {lstlisting}{\numberline {2}Deklaration und Instanziierung des Arrays kombiniert}{5}{lstlisting.2}\protected@file@percent }
\citation{Arnold2006}
\citation{Ullenboom2021}
\@writefile{toc}{\contentsline {subsubsection}{\numberline {2.2.2}Generische Programmierbarkeit}{6}{subsubsection.2.2.2}\protected@file@percent }
\newlabel{lst:Generizität}{{3}{6}{Generische Programmierbarkeit von Arrays}{lstlisting.3}{}}
\@writefile{lol}{\contentsline {lstlisting}{\numberline {3}Generische Programmierbarkeit von Arrays}{6}{lstlisting.3}\protected@file@percent }
\@writefile{toc}{\contentsline {subsubsection}{\numberline {2.2.3}Dimensionalität}{6}{subsubsection.2.2.3}\protected@file@percent }
\newlabel{lst:Dimensionalität}{{4}{6}{Dimensionalität von Arrays}{lstlisting.4}{}}
\@writefile{lol}{\contentsline {lstlisting}{\numberline {4}Dimensionalität von Arrays}{6}{lstlisting.4}\protected@file@percent }
\citation{Ullenboom2021}
\citation{Ullenboom2021}
\citation{Arnold2006}
\@writefile{toc}{\contentsline {subsubsection}{\numberline {2.2.4}Adressierung}{7}{subsubsection.2.2.4}\protected@file@percent }
\newlabel{sec:Adressierung}{{2.2.4}{7}{Adressierung}{subsubsection.2.2.4}{}}
\newlabel{lst:Adressierung}{{5}{7}{Adressierung von Arrays}{lstlisting.5}{}}
\@writefile{lol}{\contentsline {lstlisting}{\numberline {5}Adressierung von Arrays}{7}{lstlisting.5}\protected@file@percent }
\@writefile{toc}{\contentsline {subsubsection}{\numberline {2.2.5}Manipulation}{7}{subsubsection.2.2.5}\protected@file@percent }
\newlabel{lst:Manipulation}{{6}{7}{Manipulation von Arrays}{lstlisting.6}{}}
\@writefile{lol}{\contentsline {lstlisting}{\numberline {6}Manipulation von Arrays}{7}{lstlisting.6}\protected@file@percent }
\@writefile{toc}{\contentsline {subsubsection}{\numberline {2.2.6}Iteration}{7}{subsubsection.2.2.6}\protected@file@percent }
\newlabel{sec:Iteration}{{2.2.6}{7}{Iteration}{subsubsection.2.2.6}{}}
\citation{Ullenboom2021}
\citation{Ullenboom2021}
\newlabel{lst:ForLoop}{{7}{8}{Anwendung einer For-Schleife zum Bilden der Summe}{lstlisting.7}{}}
\@writefile{lol}{\contentsline {lstlisting}{\numberline {7}Anwendung einer For-Schleife zum Bilden der Summe}{8}{lstlisting.7}\protected@file@percent }
\newlabel{lst:ForeachLoop}{{8}{8}{Anwendung einer Foreach-Schleife zum Bilden der Summe}{lstlisting.8}{}}
\@writefile{lol}{\contentsline {lstlisting}{\numberline {8}Anwendung einer Foreach-Schleife zum Bilden der Summe}{8}{lstlisting.8}\protected@file@percent }
\@writefile{toc}{\contentsline {subsection}{\numberline {2.3}Typische Fehler in Verbindung mit Arrays}{8}{subsection.2.3}\protected@file@percent }
\citation{Ullenboom2021}
\citation{Chen}
\citation{Chen}
\citation{Chen}
\citation{Chen}
\newlabel{lst:NullPointer}{{9}{9}{Beispiel für das Auftreten einer Null-Pointer-Exception beim nicht instanziierten Array}{lstlisting.9}{}}
\@writefile{lol}{\contentsline {lstlisting}{\numberline {9}Beispiel für das Auftreten einer Null-Pointer-Exception beim nicht instanziierten Array}{9}{lstlisting.9}\protected@file@percent }
\newlabel{lst:OutOfBounds}{{10}{9}{Beispiel für das Auftreten einer Array-Index-Out-Of-Bounds-Exception}{lstlisting.10}{}}
\@writefile{lol}{\contentsline {lstlisting}{\numberline {10}Beispiel für das Auftreten einer Array-Index-Out-Of-Bounds-Exception}{9}{lstlisting.10}\protected@file@percent }
\newlabel{lst:Error2d}{{11}{9}{Zugriff auf nicht instanziiertes internes Array}{lstlisting.11}{}}
\@writefile{lol}{\contentsline {lstlisting}{\numberline {11}Zugriff auf nicht instanziiertes internes Array}{9}{lstlisting.11}\protected@file@percent }
\citation{Vgh2016JAVASCRIPTLF}
\citation{Vgh2016JAVASCRIPTLF}
\citation{MAYER200285}
\citation{Vgh2016JAVASCRIPTLF}
\citation{Vgh2016JAVASCRIPTLF}
\@writefile{toc}{\contentsline {subsection}{\numberline {2.4}State of the art}{10}{subsection.2.4}\protected@file@percent }
\@writefile{lof}{\contentsline {figure}{\numberline {2.3}{\ignorespaces Verschiedene Komponenten der Mikro-Level basierten Animationsbibliothek Inalan \cite  {Vgh2016JAVASCRIPTLF}\relax }}{11}{figure.3}\protected@file@percent }
\newlabel{fig:Inalan}{{2.3}{11}{Verschiedene Komponenten der Mikro-Level basierten Animationsbibliothek Inalan \cite {Vgh2016JAVASCRIPTLF}\relax }{figure.3}{}}
\citation{DavidsonShivers2017}
\@writefile{toc}{\contentsline {section}{\numberline {3}Design}{12}{section.3}\protected@file@percent }
\@writefile{toc}{\contentsline {subsection}{\numberline {3.1}Array Erstellung und Repräsentation}{12}{subsection.3.1}\protected@file@percent }
\newlabel{sec:ArrayRepräsentation}{{3.1}{12}{Array Erstellung und Repräsentation}{subsection.3.1}{}}
\@writefile{toc}{\contentsline {subsubsection}{\numberline {3.1.1}Initialisierung}{12}{subsubsection.3.1.1}\protected@file@percent }
\@writefile{lof}{\contentsline {figure}{\numberline {3.4}{\ignorespaces UI für die Initialisierung eines 1-D Arrays\relax }}{13}{figure.4}\protected@file@percent }
\newlabel{fig:Initialisierung}{{3.4}{13}{UI für die Initialisierung eines 1-D Arrays\relax }{figure.4}{}}
\@writefile{toc}{\contentsline {subsubsection}{\numberline {3.1.2}Repräsentation}{13}{subsubsection.3.1.2}\protected@file@percent }
\@writefile{lot}{\contentsline {table}{\numberline {1}{\ignorespaces Gegenüberstellung von Vor-und Nachteilen der Darstellungsarten\relax }}{14}{table.caption.2}\protected@file@percent }
\newlabel{tab:Darstellungstypen}{{1}{14}{Gegenüberstellung von Vor-und Nachteilen der Darstellungsarten\relax }{table.caption.2}{}}
\@writefile{lof}{\contentsline {figure}{\numberline {3.5}{\ignorespaces UI für die Darstellung des Arrays mit seinen Attributen\relax }}{14}{figure.5}\protected@file@percent }
\newlabel{fig:Repräsentation}{{3.5}{14}{UI für die Darstellung des Arrays mit seinen Attributen\relax }{figure.5}{}}
\@writefile{toc}{\contentsline {subsection}{\numberline {3.2}Array Operationen}{14}{subsection.3.2}\protected@file@percent }
\@writefile{toc}{\contentsline {subsubsection}{\numberline {3.2.1}Adressierung}{15}{subsubsection.3.2.1}\protected@file@percent }
\@writefile{lof}{\contentsline {figure}{\numberline {3.6}{\ignorespaces Einfärbung nach der Eingabe einer Adressierung\relax }}{15}{figure.6}\protected@file@percent }
\newlabel{fig:Adressierung}{{3.6}{15}{Einfärbung nach der Eingabe einer Adressierung\relax }{figure.6}{}}
\@writefile{toc}{\contentsline {subsubsection}{\numberline {3.2.2}Manipulation}{15}{subsubsection.3.2.2}\protected@file@percent }
\newlabel{sec:Manipulation}{{3.2.2}{15}{Manipulation}{subsubsection.3.2.2}{}}
\@writefile{lof}{\contentsline {figure}{\numberline {3.7}{\ignorespaces Einfärbung und Änderung nach der Eingabe der Manipulation\relax }}{16}{figure.7}\protected@file@percent }
\newlabel{fig:Manipulation}{{3.7}{16}{Einfärbung und Änderung nach der Eingabe der Manipulation\relax }{figure.7}{}}
\@writefile{lof}{\contentsline {figure}{\numberline {3.8}{\ignorespaces Löschen eines Eintrags im Array durch Verwendung eines Nullpointers\relax }}{16}{figure.8}\protected@file@percent }
\newlabel{fig:ManipulationDelete}{{3.8}{16}{Löschen eines Eintrags im Array durch Verwendung eines Nullpointers\relax }{figure.8}{}}
\@writefile{toc}{\contentsline {subsubsection}{\numberline {3.2.3}Iteration}{16}{subsubsection.3.2.3}\protected@file@percent }
\newlabel{fig:IterationBegin}{{3.9a}{18}{UI für das Array nach Bestätigung der Eingabe\relax }{subfigure.9.1}{}}
\newlabel{sub@fig:IterationBegin}{{a}{18}{UI für das Array nach Bestätigung der Eingabe\relax }{subfigure.9.1}{}}
\newlabel{fig:IterationEnd}{{3.9b}{18}{UI für das Array nach Abschluss der Iteration\relax }{subfigure.9.2}{}}
\newlabel{sub@fig:IterationEnd}{{b}{18}{UI für das Array nach Abschluss der Iteration\relax }{subfigure.9.2}{}}
\@writefile{lof}{\contentsline {figure}{\numberline {3.9}{\ignorespaces Iterationsprozess\relax }}{18}{figure.9}\protected@file@percent }
\newlabel{fig:Iteration}{{3.9}{18}{Iterationsprozess\relax }{figure.9}{}}
\@writefile{toc}{\contentsline {subsection}{\numberline {3.3}Array Fehlerdarstellung}{18}{subsection.3.3}\protected@file@percent }
\newlabel{sec:ArrayFehler}{{3.3}{18}{Array Fehlerdarstellung}{subsection.3.3}{}}
\newlabel{fig:ErrorSemicolon}{{3.10a}{19}{Syntaxfehler Im Bezug auf das Semikolon\relax }{subfigure.10.1}{}}
\newlabel{sub@fig:ErrorSemicolon}{{a}{19}{Syntaxfehler Im Bezug auf das Semikolon\relax }{subfigure.10.1}{}}
\newlabel{fig:ErrorArray}{{3.10b}{19}{Syntaxfehler im Bezug auf das Array\relax }{subfigure.10.2}{}}
\newlabel{sub@fig:ErrorArray}{{b}{19}{Syntaxfehler im Bezug auf das Array\relax }{subfigure.10.2}{}}
\@writefile{lof}{\contentsline {figure}{\numberline {3.10}{\ignorespaces Typische Fehler\relax }}{19}{figure.10}\protected@file@percent }
\newlabel{fig:Errors}{{3.10}{19}{Typische Fehler\relax }{figure.10}{}}
\newlabel{fig:ErrorOoB}{{3.11a}{19}{Array-Index-Out-Of-Bounds-Exception nach einer falschen Indizierung (Indizierung > Arraylänge)\relax }{subfigure.11.1}{}}
\newlabel{sub@fig:ErrorOoB}{{a}{19}{Array-Index-Out-Of-Bounds-Exception nach einer falschen Indizierung (Indizierung > Arraylänge)\relax }{subfigure.11.1}{}}
\newlabel{fig:ErrorNp}{{3.11b}{19}{Null-Pointer-Exception nachdem eine Iteration gestartet wurde, die über das gelöschte Element iteriert\relax }{subfigure.11.2}{}}
\newlabel{sub@fig:ErrorNp}{{b}{19}{Null-Pointer-Exception nachdem eine Iteration gestartet wurde, die über das gelöschte Element iteriert\relax }{subfigure.11.2}{}}
\@writefile{lof}{\contentsline {figure}{\numberline {3.11}{\ignorespaces Exceptions\relax }}{19}{figure.11}\protected@file@percent }
\newlabel{fig:Exceptions}{{3.11}{19}{Exceptions\relax }{figure.11}{}}
\@writefile{toc}{\contentsline {subsection}{\numberline {3.4}2-dimensionale Arrays}{20}{subsection.3.4}\protected@file@percent }
\newlabel{sec:Array2d}{{3.4}{20}{2-dimensionale Arrays}{subsection.3.4}{}}
\@writefile{lof}{\contentsline {figure}{\numberline {3.12}{\ignorespaces Repräsentation eines 2-dimensionalen Arrays\relax }}{20}{figure.12}\protected@file@percent }
\newlabel{fig:Repräsentation2d}{{3.12}{20}{Repräsentation eines 2-dimensionalen Arrays\relax }{figure.12}{}}
\@writefile{lof}{\contentsline {figure}{\numberline {3.13}{\ignorespaces Array-Index-Out-Of-Bounds-Exception nach einer falschen Indizierung (negative Indizierung)\relax }}{21}{figure.13}\protected@file@percent }
\newlabel{fig:Error2d}{{3.13}{21}{Array-Index-Out-Of-Bounds-Exception nach einer falschen Indizierung (negative Indizierung)\relax }{figure.13}{}}
\@writefile{toc}{\contentsline {section}{\numberline {4}Implementierung}{22}{section.4}\protected@file@percent }
\@writefile{toc}{\contentsline {subsection}{\numberline {4.1}Setup}{22}{subsection.4.1}\protected@file@percent }
\newlabel{sec:Setup}{{4.1}{22}{Setup}{subsection.4.1}{}}
\@writefile{toc}{\contentsline {subsection}{\numberline {4.2}Dateien}{22}{subsection.4.2}\protected@file@percent }
\@writefile{toc}{\contentsline {subsection}{\numberline {4.3}Aufbau des Programms}{23}{subsection.4.3}\protected@file@percent }
\newlabel{sec:Aufbau des Programms}{{4.3}{23}{Aufbau des Programms}{subsection.4.3}{}}
\@writefile{toc}{\contentsline {subsubsection}{\numberline {4.3.1}Zustandsvariablen}{23}{subsubsection.4.3.1}\protected@file@percent }
\@writefile{toc}{\contentsline {subsubsection}{\numberline {4.3.2}Zustandsänderungen}{23}{subsubsection.4.3.2}\protected@file@percent }
\@writefile{toc}{\contentsline {subsection}{\numberline {4.4}Ausblick}{24}{subsection.4.4}\protected@file@percent }
\@writefile{toc}{\contentsline {section}{\numberline {5}Zusammenfassung}{26}{section.5}\protected@file@percent }
\@setckpt{section/section}{
\setcounter{page}{27}
\setcounter{equation}{0}
\setcounter{enumi}{0}
\setcounter{enumii}{0}
\setcounter{enumiii}{0}
\setcounter{enumiv}{0}
\setcounter{footnote}{0}
\setcounter{mpfootnote}{0}
\setcounter{part}{0}
\setcounter{section}{5}
\setcounter{subsection}{0}
\setcounter{subsubsection}{0}
\setcounter{paragraph}{0}
\setcounter{subparagraph}{0}
\setcounter{figure}{13}
\setcounter{table}{1}
\setcounter{NAT@ctr}{0}
\setcounter{float@type}{8}
\setcounter{caption@flags}{0}
\setcounter{continuedfloat}{0}
\setcounter{subfigure}{0}
\setcounter{subtable}{0}
\setcounter{lstnumber}{4}
\setcounter{Item}{0}
\setcounter{Hfootnote}{0}
\setcounter{bookmark@seq@number}{35}
\setcounter{lstlisting}{11}
\setcounter{section@level}{1}
}
